{
    "defaultSeverity": "error",
    "extends": [
        "tslint:recommended"
    ],
    "jsRules": {},
    "rules": {
      "no-magic-numbers": [true, 1, 0, -1, 2, 1.5, 0.5],
      "no-var-requires": true,
      "only-arrow-functions": [true, "allow-declarations"],
      "member-ordering": [true, {"order": [
        "public-static-field",
        "public-instance-field",
        "private-static-field",
        "private-instance-field",
        "public-constructor",
        "public-static-method",
        "public-instance-method",
        "protected-instance-method",
        "private-instance-method"
      ]}],
      "member-access": [true, "check-accessor", "check-constructor", "check-parameter-property"],
      "adjacent-overload-signatures": true,
      "no-reference": true,
      "ban-comma-operator": true,
      "no-namespace": false,
      "curly": true,
      "no-empty": false,
      "no-empty-interface": false,
      "no-console": [true, "log", "error", "debug"],
      "no-construct": true,
      "no-duplicate-super": true,
      "no-implicit-dependencies": [true, "dev"],
      "no-invalid-template-strings": true,
      "no-return-await": true,
      "no-shadowed-variable": true,
      "variable-name": [true, "ban-keywords", "check-format", "allow-leading-underscore", "allow-pascal-case"],
      "no-string-throw": true,
      "no-this-assignment": true,
      "no-var-keyword": true,
      "object-literal-sort-keys": false,
      "no-void-expression": true,
      "prefer-object-spread": true,
      "typeof-compare": true,
      "cyclomatic-complexity": [true, 20],
      "eofline": true,
      "indent": [true, "tabs", 2],
      "linebreak-style": [true, "LF"],
      "no-duplicate-imports": false,
      "prefer-const": true,
      "trailing-comma": [true, {"multiline": "always", "singleline": "never"}],
      "align": [true, "parameters", "statements", "elements"],
      "array-type": [true, "array"],
      "arrow-return-shorthand": true,
      "class-name": true,
      "comment-format": [true, "check-space"],
      "import-spacing": true,
      "interface-over-type-literal": true,
      "interface-name": false,
      "no-trailing-whitespace": true,
      "no-unnecessary-callback-wrapper": true,
      "no-unnecessary-initializer": true,
      "number-literal-format": true,
      "prefer-method-signature": true,
      "quotemark": [true, "single"],
      "semicolon": [true, "always"],
      "typedef-whitespace": false,
      "no-unused-expression": false
    },
    "rulesDirectory": []
}